{
    "NODE_1_URL":"http://api-zksync-prod-rbc:3000",
    "NODE_1_PATTERN":"did:recetasbc",
    "NODE_1_BEHAVIOR":1,
    "NODE_2_URL":"https://lbquarkid.extrimian.com/",
    "NODE_2_PATTERN":"did:quarkid",
    "NODE_2_BEHAVIOR":1
}